task4/delay.vcd
$version Generated by VerilatedVcd $end
$date Fri Nov  4 07:23:10 2022 $end
$timescale 1ps $end

 $scope module TOP $end
  $var wire  1 / clk $end
  $var wire  8 3 data_out [8:1] $end
  $var wire  1 1 en $end
  $var wire  1 0 rst $end
  $var wire  1 4 time_out $end
  $var wire  1 2 trigger $end
  $scope module all $end
   $var wire  1 / clk $end
   $var wire  1 $ cmd_delay $end
   $var wire  1 % cmd_seq $end
   $var wire  8 3 data_out [8:1] $end
   $var wire  1 1 en $end
   $var wire  7 & lfsrOut [7:1] $end
   $var wire  1 5 muxout $end
   $var wire  1 0 rst $end
   $var wire  1 # tick $end
   $var wire  1 4 time_out $end
   $var wire  1 2 trigger $end
   $scope module clktick $end
    $var wire 16 7 N [15:0] $end
    $var wire 32 6 WIDTH [31:0] $end
    $var wire  1 / clk $end
    $var wire 16 ' count [15:0] $end
    $var wire  1 % en $end
    $var wire  1 0 rst $end
    $var wire  1 # tick $end
   $upscope $end
   $scope module delay $end
    $var wire 32 8 WIDTH [31:0] $end
    $var wire  1 / clk $end
    $var wire 10 ) count [9:0] $end
    $var wire 32 * current_state [31:0] $end
    $var wire 10 ( n [9:0] $end
    $var wire 32 + next_state [31:0] $end
    $var wire  1 0 rst $end
    $var wire  1 4 time_out $end
    $var wire  1 $ trigger $end
   $upscope $end
   $scope module f1 $end
    $var wire  1 / clk $end
    $var wire  1 $ cmd_delay $end
    $var wire  1 % cmd_seq $end
    $var wire 32 , current_state [31:0] $end
    $var wire  8 3 data_out [8:1] $end
    $var wire  1 5 en $end
    $var wire 32 - next_state [31:0] $end
    $var wire  1 0 rst $end
    $var wire  1 2 trigger $end
   $upscope $end
   $scope module lfsr $end
    $var wire  1 / clk $end
    $var wire  1 9 en $end
    $var wire  7 & lfsr_out [7:1] $end
    $var wire  1 0 rst $end
    $var wire  7 . sreg [7:1] $end
   $upscope $end
   $scope module mux $end
    $var wire  1 # a $end
    $var wire  1 4 b $end
    $var wire  1 5 out $end
    $var wire  1 % sel $end
   $upscope $end
  $upscope $end
 $upscope $end
$enddefinitions $end


#0
0#
0$
0%
b0000000 &
b0000000000000000 '
b0000000000 (
b0000000000 )
b00000000000000000000000000000000 *
b00000000000000000000000000000000 +
b00000000000000000000000000000000 ,
b00000000000000000000000000000001 -
b0000000 .
1/
00
01
02
b00000000 3
04
05
b00000000000000000000000000010000 6
b0000000000101000 7
b00000000000000000000000000001010 8
19
#1
0/
#2
b1111111111 )
1/
10
#3
0/
#4
b0000001 &
b0000000000101000 '
b0000000001 (
b0000001 .
1/
#5
0/
#6
b0000000000 )
1/
00
#7
0/
#8
b0000011 &
b0000000011 (
b0000011 .
1/
#9
0/
#10
b0000111 &
b0000000111 (
b0000000010 )
b0000111 .
1/
#11
0/
#12
b0001111 &
b0000001111 (
b0000000001 )
b0001111 .
1/
#13
0/
#14
b0011111 &
b0000011111 (
b0000000000 )
b0011111 .
1/
#15
0/
#16
b0111110 &
b0000111110 (
b0000011110 )
b0111110 .
1/
#17
0/
#18
b1111101 &
b0001111101 (
b0000011101 )
b1111101 .
1/
#19
0/
#20
b1111011 &
b0001111011 (
b0000011100 )
b1111011 .
1/
#21
0/
#22
b1110111 &
b0001110111 (
b0000011011 )
b1110111 .
1/
#23
0/
#24
b1101111 &
b0001101111 (
b0000011010 )
b1101111 .
1/
#25
0/
#26
b1011110 &
b0001011110 (
b0000011001 )
b1011110 .
1/
#27
0/
#28
b0111100 &
b0000111100 (
b0000011000 )
b0111100 .
1/
#29
0/
#30
b1111001 &
b0001111001 (
b0000010111 )
b1111001 .
1/
#31
0/
#32
b1110011 &
b0001110011 (
b0000010110 )
b1110011 .
1/
#33
0/
#34
b1100111 &
b0001100111 (
b0000010101 )
b1100111 .
1/
#35
0/
#36
b1001110 &
b0001001110 (
b0000010100 )
b1001110 .
1/
#37
0/
#38
b0011101 &
b0000011101 (
b0000010011 )
b0011101 .
1/
#39
0/
#40
b0111010 &
b0000111010 (
b0000010010 )
b0111010 .
1/
#41
0/
#42
b1110101 &
b0001110101 (
b0000010001 )
b1110101 .
1/
#43
0/
#44
b1101011 &
b0001101011 (
b0000010000 )
b1101011 .
1/
#45
0/
#46
b1010110 &
b0001010110 (
b0000001111 )
b1010110 .
1/
#47
0/
#48
b0101100 &
b0000101100 (
b0000001110 )
b0101100 .
1/
#49
0/
#50
b1011000 &
b0001011000 (
b0000001101 )
b1011000 .
1/
#51
0/
#52
b0110000 &
b0000110000 (
b0000001100 )
b0110000 .
1/
#53
0/
#54
b1100001 &
b0001100001 (
b0000001011 )
b1100001 .
1/
#55
0/
#56
b1000010 &
b0001000010 (
b0000001010 )
b1000010 .
1/
#57
0/
#58
b0000101 &
b0000000101 (
b0000001001 )
b0000101 .
1/
#59
0/
#60
b0001011 &
b0000001011 (
b0000001000 )
b0001011 .
1/
#61
0/
#62
b0010111 &
b0000010111 (
b0000000111 )
b0010111 .
1/
#63
0/
#64
b0101110 &
b0000101110 (
b0000000110 )
b0101110 .
1/
#65
0/
#66
b1011100 &
b0001011100 (
b0000000101 )
b1011100 .
1/
#67
0/
#68
b0111000 &
b0000111000 (
b0000000100 )
b0111000 .
1/
#69
0/
#70
b1110001 &
b0001110001 (
b0000000011 )
b1110001 .
1/
#71
0/
#72
b1100011 &
b0001100011 (
b0000000010 )
b1100011 .
1/
#73
0/
#74
b1000110 &
b0001000110 (
b0000000001 )
b1000110 .
1/
#75
0/
#76
b0001101 &
b0000001101 (
b0000000000 )
b0001101 .
1/
#77
0/
#78
b0011011 &
b0000011011 (
b0000001100 )
b0011011 .
1/
#79
0/
#80
b0110110 &
b0000110110 (
b0000001011 )
b0110110 .
1/
#81
0/
#82
b1101101 &
b0001101101 (
b0000001010 )
b1101101 .
1/
#83
0/
#84
b1011010 &
b0001011010 (
b0000001001 )
b1011010 .
1/
#85
0/
#86
b0110100 &
b0000110100 (
b0000001000 )
b0110100 .
1/
#87
0/
#88
b1101001 &
b0001101001 (
b0000000111 )
b1101001 .
1/
#89
0/
#90
b1010010 &
b0001010010 (
b0000000110 )
b1010010 .
1/
#91
0/
#92
b0100100 &
b0000100100 (
b0000000101 )
b0100100 .
1/
#93
0/
#94
b1001000 &
b0001001000 (
b0000000100 )
b1001000 .
1/
#95
0/
#96
b0010001 &
b0000010001 (
b0000000011 )
b0010001 .
1/
#97
0/
#98
b0100010 &
b0000100010 (
b0000000010 )
b0100010 .
1/
#99
0/
#100
b1000100 &
b0001000100 (
b0000000001 )
b1000100 .
1/
#101
0/
#102
b0001001 &
b0000001001 (
b0000000000 )
b0001001 .
1/
#103
0/
#104
b0010011 &
b0000010011 (
b0000001000 )
b0010011 .
1/
#105
0/
#106
b0100110 &
b0000100110 (
b0000000111 )
b0100110 .
1/
#107
0/
#108
b1001100 &
b0001001100 (
b0000000110 )
b1001100 .
1/
#109
0/
#110
b0011001 &
b0000011001 (
b0000000101 )
b0011001 .
1/
#111
0/
#112
b0110010 &
b0000110010 (
b0000000100 )
b0110010 .
1/
#113
0/
#114
b1100101 &
b0001100101 (
b0000000011 )
b1100101 .
1/
#115
0/
#116
b1001010 &
b0001001010 (
b0000000010 )
b1001010 .
1/
#117
0/
#118
b0010101 &
b0000010101 (
b0000000001 )
b0010101 .
1/
#119
0/
#120
b0101010 &
b0000101010 (
b0000000000 )
b0101010 .
1/
#121
0/
#122
b1010100 &
b0001010100 (
b0000101001 )
b1010100 .
1/
#123
0/
#124
b0101000 &
b0000101000 (
b0000101000 )
b0101000 .
1/
#125
0/
#126
b1010000 &
b0001010000 (
b0000100111 )
b1010000 .
1/
#127
0/
#128
b0100000 &
b0000100000 (
b0000100110 )
b0100000 .
1/
#129
0/
#130
b1000000 &
b0001000000 (
b0000100101 )
b1000000 .
1/
#131
0/
#132
b0000001 &
b0000000001 (
b0000100100 )
b0000001 .
1/
#133
0/
#134
b0000011 &
b0000000011 (
b0000100011 )
b0000011 .
1/
#135
0/
#136
b0000111 &
b0000000111 (
b0000100010 )
b0000111 .
1/
#137
0/
#138
b0001111 &
b0000001111 (
b0000100001 )
b0001111 .
1/
#139
0/
#140
b0011111 &
b0000011111 (
b0000100000 )
b0011111 .
1/
#141
0/
#142
b0111110 &
b0000111110 (
b0000011111 )
b0111110 .
1/
#143
0/
#144
b1111101 &
b0001111101 (
b0000011110 )
b1111101 .
1/
#145
0/
#146
b1111011 &
b0001111011 (
b0000011101 )
b1111011 .
1/
#147
0/
#148
b1110111 &
b0001110111 (
b0000011100 )
b1110111 .
1/
#149
0/
#150
b1101111 &
b0001101111 (
b0000011011 )
b1101111 .
1/
#151
0/
#152
b1011110 &
b0001011110 (
b0000011010 )
b1011110 .
1/
#153
0/
#154
b0111100 &
b0000111100 (
b0000011001 )
b0111100 .
1/
#155
0/
#156
b1111001 &
b0001111001 (
b0000011000 )
b1111001 .
1/
#157
0/
#158
b1110011 &
b0001110011 (
b0000010111 )
b1110011 .
1/
#159
0/
#160
b1100111 &
b0001100111 (
b0000010110 )
b1100111 .
1/
#161
0/
#162
b1001110 &
b0001001110 (
b0000010101 )
b1001110 .
1/
12
#163
0/
#164
1%
b0011101 &
b0000011101 (
b0000010100 )
b00000000000000000000000000000001 ,
b00000000000000000000000000000010 -
b0011101 .
1/
02
b00000001 3
#165
0/
#166
b0111010 &
b0000000000100111 '
b0000111010 (
b0000010011 )
b0111010 .
1/
#167
0/
#168
b1110101 &
b0000000000100110 '
b0001110101 (
b0000010010 )
b1110101 .
1/
#169
0/
#170
b1101011 &
b0000000000100101 '
b0001101011 (
b0000010001 )
b1101011 .
1/
#171
0/
#172
b1010110 &
b0000000000100100 '
b0001010110 (
b0000010000 )
b1010110 .
1/
#173
0/
#174
b0101100 &
b0000000000100011 '
b0000101100 (
b0000001111 )
b0101100 .
1/
#175
0/
#176
b1011000 &
b0000000000100010 '
b0001011000 (
b0000001110 )
b1011000 .
1/
#177
0/
#178
b0110000 &
b0000000000100001 '
b0000110000 (
b0000001101 )
b0110000 .
1/
#179
0/
#180
b1100001 &
b0000000000100000 '
b0001100001 (
b0000001100 )
b1100001 .
1/
#181
0/
#182
b1000010 &
b0000000000011111 '
b0001000010 (
b0000001011 )
b1000010 .
1/
#183
0/
#184
b0000101 &
b0000000000011110 '
b0000000101 (
b0000001010 )
b0000101 .
1/
#185
0/
#186
b0001011 &
b0000000000011101 '
b0000001011 (
b0000001001 )
b0001011 .
1/
#187
0/
#188
b0010111 &
b0000000000011100 '
b0000010111 (
b0000001000 )
b0010111 .
1/
#189
0/
#190
b0101110 &
b0000000000011011 '
b0000101110 (
b0000000111 )
b0101110 .
1/
#191
0/
#192
b1011100 &
b0000000000011010 '
b0001011100 (
b0000000110 )
b1011100 .
1/
#193
0/
#194
b0111000 &
b0000000000011001 '
b0000111000 (
b0000000101 )
b0111000 .
1/
#195
0/
#196
b1110001 &
b0000000000011000 '
b0001110001 (
b0000000100 )
b1110001 .
1/
#197
0/
#198
b1100011 &
b0000000000010111 '
b0001100011 (
b0000000011 )
b1100011 .
1/
#199
0/
#200
b1000110 &
b0000000000010110 '
b0001000110 (
b0000000010 )
b1000110 .
1/
#201
0/
#202
b0001101 &
b0000000000010101 '
b0000001101 (
b0000000001 )
b0001101 .
1/
#203
0/
#204
b0011011 &
b0000000000010100 '
b0000011011 (
b0000000000 )
b0011011 .
1/
#205
0/
#206
b0110110 &
b0000000000010011 '
b0000110110 (
b0000011010 )
b0110110 .
1/
#207
0/
#208
b1101101 &
b0000000000010010 '
b0001101101 (
b0000011001 )
b1101101 .
1/
#209
0/
#210
b1011010 &
b0000000000010001 '
b0001011010 (
b0000011000 )
b1011010 .
1/
#211
0/
#212
b0110100 &
b0000000000010000 '
b0000110100 (
b0000010111 )
b0110100 .
1/
#213
0/
#214
b1101001 &
b0000000000001111 '
b0001101001 (
b0000010110 )
b1101001 .
1/
#215
0/
#216
b1010010 &
b0000000000001110 '
b0001010010 (
b0000010101 )
b1010010 .
1/
#217
0/
#218
b0100100 &
b0000000000001101 '
b0000100100 (
b0000010100 )
b0100100 .
1/
#219
0/
#220
b1001000 &
b0000000000001100 '
b0001001000 (
b0000010011 )
b1001000 .
1/
#221
0/
#222
b0010001 &
b0000000000001011 '
b0000010001 (
b0000010010 )
b0010001 .
1/
#223
0/
#224
b0100010 &
b0000000000001010 '
b0000100010 (
b0000010001 )
b0100010 .
1/
#225
0/
#226
b1000100 &
b0000000000001001 '
b0001000100 (
b0000010000 )
b1000100 .
1/
#227
0/
#228
b0001001 &
b0000000000001000 '
b0000001001 (
b0000001111 )
b0001001 .
1/
#229
0/
#230
b0010011 &
b0000000000000111 '
b0000010011 (
b0000001110 )
b0010011 .
1/
#231
0/
#232
b0100110 &
b0000000000000110 '
b0000100110 (
b0000001101 )
b0100110 .
1/
#233
0/
#234
b1001100 &
b0000000000000101 '
b0001001100 (
b0000001100 )
b1001100 .
1/
#235
0/
#236
b0011001 &
b0000000000000100 '
b0000011001 (
b0000001011 )
b0011001 .
1/
#237
0/
#238
b0110010 &
b0000000000000011 '
b0000110010 (
b0000001010 )
b0110010 .
1/
#239
0/
#240
b1100101 &
b0000000000000010 '
b0001100101 (
b0000001001 )
b1100101 .
1/
#241
0/
#242
b1001010 &
b0000000000000001 '
b0001001010 (
b0000001000 )
b1001010 .
1/
#243
0/
#244
b0010101 &
b0000000000000000 '
b0000010101 (
b0000000111 )
b0010101 .
1/
#245
0/
#246
1#
b0101010 &
b0000000000101000 '
b0000101010 (
b0000000110 )
b0101010 .
1/
15
#247
0/
#248
0#
b1010100 &
b0000000000100111 '
b0001010100 (
b0000000101 )
b00000000000000000000000000000010 ,
b00000000000000000000000000000011 -
b1010100 .
1/
b00000011 3
05
#249
0/
#250
b0101000 &
b0000000000100110 '
b0000101000 (
b0000000100 )
b0101000 .
1/
#251
0/
#252
b1010000 &
b0000000000100101 '
b0001010000 (
b0000000011 )
b1010000 .
1/
#253
0/
#254
b0100000 &
b0000000000100100 '
b0000100000 (
b0000000010 )
b0100000 .
1/
#255
0/
#256
b1000000 &
b0000000000100011 '
b0001000000 (
b0000000001 )
b1000000 .
1/
#257
0/
#258
b0000001 &
b0000000000100010 '
b0000000001 (
b0000000000 )
b0000001 .
1/
#259
0/
#260
b0000011 &
b0000000000100001 '
b0000000011 (
b0000011 .
1/
#261
0/
#262
b0000111 &
b0000000000100000 '
b0000000111 (
b0000000010 )
b0000111 .
1/
#263
0/
#264
b0001111 &
b0000000000011111 '
b0000001111 (
b0000000001 )
b0001111 .
1/
#265
0/
#266
b0011111 &
b0000000000011110 '
b0000011111 (
b0000000000 )
b0011111 .
1/
#267
0/
#268
b0111110 &
b0000000000011101 '
b0000111110 (
b0000011110 )
b0111110 .
1/
#269
0/
#270
b1111101 &
b0000000000011100 '
b0001111101 (
b0000011101 )
b1111101 .
1/
#271
0/
#272
b1111011 &
b0000000000011011 '
b0001111011 (
b0000011100 )
b1111011 .
1/
#273
0/
#274
b1110111 &
b0000000000011010 '
b0001110111 (
b0000011011 )
b1110111 .
1/
#275
0/
#276
b1101111 &
b0000000000011001 '
b0001101111 (
b0000011010 )
b1101111 .
1/
#277
0/
#278
b1011110 &
b0000000000011000 '
b0001011110 (
b0000011001 )
b1011110 .
1/
#279
0/
#280
b0111100 &
b0000000000010111 '
b0000111100 (
b0000011000 )
b0111100 .
1/
#281
0/
#282
b1111001 &
b0000000000010110 '
b0001111001 (
b0000010111 )
b1111001 .
1/
#283
0/
#284
b1110011 &
b0000000000010101 '
b0001110011 (
b0000010110 )
b1110011 .
1/
#285
0/
#286
b1100111 &
b0000000000010100 '
b0001100111 (
b0000010101 )
b1100111 .
1/
#287
0/
#288
b1001110 &
b0000000000010011 '
b0001001110 (
b0000010100 )
b1001110 .
1/
#289
0/
#290
b0011101 &
b0000000000010010 '
b0000011101 (
b0000010011 )
b0011101 .
1/
#291
0/
#292
b0111010 &
b0000000000010001 '
b0000111010 (
b0000010010 )
b0111010 .
1/
#293
0/
#294
b1110101 &
b0000000000010000 '
b0001110101 (
b0000010001 )
b1110101 .
1/
#295
0/
#296
b1101011 &
b0000000000001111 '
b0001101011 (
b0000010000 )
b1101011 .
1/
#297
0/
#298
b1010110 &
b0000000000001110 '
b0001010110 (
b0000001111 )
b1010110 .
1/
#299
0/
#300
b0101100 &
b0000000000001101 '
b0000101100 (
b0000001110 )
b0101100 .
1/
#301
0/
#302
b1011000 &
b0000000000001100 '
b0001011000 (
b0000001101 )
b1011000 .
1/
#303
0/
#304
b0110000 &
b0000000000001011 '
b0000110000 (
b0000001100 )
b0110000 .
1/
#305
0/
#306
b1100001 &
b0000000000001010 '
b0001100001 (
b0000001011 )
b1100001 .
1/
#307
0/
#308
b1000010 &
b0000000000001001 '
b0001000010 (
b0000001010 )
b1000010 .
1/
#309
0/
#310
b0000101 &
b0000000000001000 '
b0000000101 (
b0000001001 )
b0000101 .
1/
#311
0/
#312
b0001011 &
b0000000000000111 '
b0000001011 (
b0000001000 )
b0001011 .
1/
#313
0/
#314
b0010111 &
b0000000000000110 '
b0000010111 (
b0000000111 )
b0010111 .
1/
#315
0/
#316
b0101110 &
b0000000000000101 '
b0000101110 (
b0000000110 )
b0101110 .
1/
#317
0/
#318
b1011100 &
b0000000000000100 '
b0001011100 (
b0000000101 )
b1011100 .
1/
#319
0/
#320
b0111000 &
b0000000000000011 '
b0000111000 (
b0000000100 )
b0111000 .
1/
#321
0/
#322
b1110001 &
b0000000000000010 '
b0001110001 (
b0000000011 )
b1110001 .
1/
#323
0/
#324
b1100011 &
b0000000000000001 '
b0001100011 (
b0000000010 )
b1100011 .
1/
#325
0/
#326
b1000110 &
b0000000000000000 '
b0001000110 (
b0000000001 )
b1000110 .
1/
#327
0/
#328
1#
b0001101 &
b0000000000101000 '
b0000001101 (
b0000000000 )
b0001101 .
1/
15
#329
0/
#330
0#
b0011011 &
b0000000000100111 '
b0000011011 (
b0000001100 )
b00000000000000000000000000000011 ,
b00000000000000000000000000000100 -
b0011011 .
1/
b00000111 3
05
#331
0/
#332
b0110110 &
b0000000000100110 '
b0000110110 (
b0000001011 )
b0110110 .
1/
#333
0/
#334
b1101101 &
b0000000000100101 '
b0001101101 (
b0000001010 )
b1101101 .
1/
#335
0/
#336
b1011010 &
b0000000000100100 '
b0001011010 (
b0000001001 )
b1011010 .
1/
#337
0/
#338
b0110100 &
b0000000000100011 '
b0000110100 (
b0000001000 )
b0110100 .
1/
#339
0/
#340
b1101001 &
b0000000000100010 '
b0001101001 (
b0000000111 )
b1101001 .
1/
#341
0/
#342
b1010010 &
b0000000000100001 '
b0001010010 (
b0000000110 )
b1010010 .
1/
#343
0/
#344
b0100100 &
b0000000000100000 '
b0000100100 (
b0000000101 )
b0100100 .
1/
#345
0/
#346
b1001000 &
b0000000000011111 '
b0001001000 (
b0000000100 )
b1001000 .
1/
#347
0/
#348
b0010001 &
b0000000000011110 '
b0000010001 (
b0000000011 )
b0010001 .
1/
#349
0/
#350
b0100010 &
b0000000000011101 '
b0000100010 (
b0000000010 )
b0100010 .
1/
#351
0/
#352
b1000100 &
b0000000000011100 '
b0001000100 (
b0000000001 )
b1000100 .
1/
#353
0/
#354
b0001001 &
b0000000000011011 '
b0000001001 (
b0000000000 )
b0001001 .
1/
#355
0/
#356
b0010011 &
b0000000000011010 '
b0000010011 (
b0000001000 )
b0010011 .
1/
#357
0/
#358
b0100110 &
b0000000000011001 '
b0000100110 (
b0000000111 )
b0100110 .
1/
#359
0/
#360
b1001100 &
b0000000000011000 '
b0001001100 (
b0000000110 )
b1001100 .
1/
#361
0/
#362
b0011001 &
b0000000000010111 '
b0000011001 (
b0000000101 )
b0011001 .
1/
#363
0/
#364
b0110010 &
b0000000000010110 '
b0000110010 (
b0000000100 )
b0110010 .
1/
#365
0/
#366
b1100101 &
b0000000000010101 '
b0001100101 (
b0000000011 )
b1100101 .
1/
#367
0/
#368
b1001010 &
b0000000000010100 '
b0001001010 (
b0000000010 )
b1001010 .
1/
#369
0/
#370
b0010101 &
b0000000000010011 '
b0000010101 (
b0000000001 )
b0010101 .
1/
#371
0/
#372
b0101010 &
b0000000000010010 '
b0000101010 (
b0000000000 )
b0101010 .
1/
#373
0/
#374
b1010100 &
b0000000000010001 '
b0001010100 (
b0000101001 )
b1010100 .
1/
#375
0/
#376
b0101000 &
b0000000000010000 '
b0000101000 (
b0000101000 )
b0101000 .
1/
#377
0/
#378
b1010000 &
b0000000000001111 '
b0001010000 (
b0000100111 )
b1010000 .
1/
#379
0/
#380
b0100000 &
b0000000000001110 '
b0000100000 (
b0000100110 )
b0100000 .
1/
#381
0/
#382
b1000000 &
b0000000000001101 '
b0001000000 (
b0000100101 )
b1000000 .
1/
#383
0/
#384
b0000001 &
b0000000000001100 '
b0000000001 (
b0000100100 )
b0000001 .
1/
#385
0/
#386
b0000011 &
b0000000000001011 '
b0000000011 (
b0000100011 )
b0000011 .
1/
#387
0/
#388
b0000111 &
b0000000000001010 '
b0000000111 (
b0000100010 )
b0000111 .
1/
#389
0/
#390
b0001111 &
b0000000000001001 '
b0000001111 (
b0000100001 )
b0001111 .
1/
#391
0/
#392
b0011111 &
b0000000000001000 '
b0000011111 (
b0000100000 )
b0011111 .
1/
#393
0/
#394
b0111110 &
b0000000000000111 '
b0000111110 (
b0000011111 )
b0111110 .
1/
#395
0/
#396
b1111101 &
b0000000000000110 '
b0001111101 (
b0000011110 )
b1111101 .
1/
#397
0/
#398
b1111011 &
b0000000000000101 '
b0001111011 (
b0000011101 )
b1111011 .
1/
#399
0/
#400
b1110111 &
b0000000000000100 '
b0001110111 (
b0000011100 )
b1110111 .
1/
#401
0/
#402
b1101111 &
b0000000000000011 '
b0001101111 (
b0000011011 )
b1101111 .
1/
#403
0/
#404
b1011110 &
b0000000000000010 '
b0001011110 (
b0000011010 )
b1011110 .
1/
#405
0/
#406
b0111100 &
b0000000000000001 '
b0000111100 (
b0000011001 )
b0111100 .
1/
#407
0/
#408
b1111001 &
b0000000000000000 '
b0001111001 (
b0000011000 )
b1111001 .
1/
#409
0/
#410
1#
b1110011 &
b0000000000101000 '
b0001110011 (
b0000010111 )
b1110011 .
1/
15
#411
0/
#412
0#
b1100111 &
b0000000000100111 '
b0001100111 (
b0000010110 )
b00000000000000000000000000000100 ,
b00000000000000000000000000000101 -
b1100111 .
1/
b00001111 3
05
#413
0/
#414
b1001110 &
b0000000000100110 '
b0001001110 (
b0000010101 )
b1001110 .
1/
#415
0/
#416
b0011101 &
b0000000000100101 '
b0000011101 (
b0000010100 )
b0011101 .
1/
#417
0/
#418
b0111010 &
b0000000000100100 '
b0000111010 (
b0000010011 )
b0111010 .
1/
#419
0/
#420
b1110101 &
b0000000000100011 '
b0001110101 (
b0000010010 )
b1110101 .
1/
#421
0/
#422
b1101011 &
b0000000000100010 '
b0001101011 (
b0000010001 )
b1101011 .
1/
#423
0/
#424
b1010110 &
b0000000000100001 '
b0001010110 (
b0000010000 )
b1010110 .
1/
#425
0/
#426
b0101100 &
b0000000000100000 '
b0000101100 (
b0000001111 )
b0101100 .
1/
#427
0/
#428
b1011000 &
b0000000000011111 '
b0001011000 (
b0000001110 )
b1011000 .
1/
#429
0/
#430
b0110000 &
b0000000000011110 '
b0000110000 (
b0000001101 )
b0110000 .
1/
#431
0/
#432
b1100001 &
b0000000000011101 '
b0001100001 (
b0000001100 )
b1100001 .
1/
#433
0/
#434
b1000010 &
b0000000000011100 '
b0001000010 (
b0000001011 )
b1000010 .
1/
#435
0/
#436
b0000101 &
b0000000000011011 '
b0000000101 (
b0000001010 )
b0000101 .
1/
#437
0/
#438
b0001011 &
b0000000000011010 '
b0000001011 (
b0000001001 )
b0001011 .
1/
#439
0/
#440
b0010111 &
b0000000000011001 '
b0000010111 (
b0000001000 )
b0010111 .
1/
#441
0/
#442
b0101110 &
b0000000000011000 '
b0000101110 (
b0000000111 )
b0101110 .
1/
#443
0/
#444
b1011100 &
b0000000000010111 '
b0001011100 (
b0000000110 )
b1011100 .
1/
#445
0/
#446
b0111000 &
b0000000000010110 '
b0000111000 (
b0000000101 )
b0111000 .
1/
#447
0/
#448
b1110001 &
b0000000000010101 '
b0001110001 (
b0000000100 )
b1110001 .
1/
#449
0/
#450
b1100011 &
b0000000000010100 '
b0001100011 (
b0000000011 )
b1100011 .
1/
#451
0/
#452
b1000110 &
b0000000000010011 '
b0001000110 (
b0000000010 )
b1000110 .
1/
#453
0/
#454
b0001101 &
b0000000000010010 '
b0000001101 (
b0000000001 )
b0001101 .
1/
#455
0/
#456
b0011011 &
b0000000000010001 '
b0000011011 (
b0000000000 )
b0011011 .
1/
#457
0/
#458
b0110110 &
b0000000000010000 '
b0000110110 (
b0000011010 )
b0110110 .
1/
#459
0/
#460
b1101101 &
b0000000000001111 '
b0001101101 (
b0000011001 )
b1101101 .
1/
#461
0/
#462
b1011010 &
b0000000000001110 '
b0001011010 (
b0000011000 )
b1011010 .
1/
#463
0/
#464
b0110100 &
b0000000000001101 '
b0000110100 (
b0000010111 )
b0110100 .
1/
#465
0/
#466
b1101001 &
b0000000000001100 '
b0001101001 (
b0000010110 )
b1101001 .
1/
#467
0/
#468
b1010010 &
b0000000000001011 '
b0001010010 (
b0000010101 )
b1010010 .
1/
#469
0/
#470
b0100100 &
b0000000000001010 '
b0000100100 (
b0000010100 )
b0100100 .
1/
#471
0/
#472
b1001000 &
b0000000000001001 '
b0001001000 (
b0000010011 )
b1001000 .
1/
#473
0/
#474
b0010001 &
b0000000000001000 '
b0000010001 (
b0000010010 )
b0010001 .
1/
#475
0/
#476
b0100010 &
b0000000000000111 '
b0000100010 (
b0000010001 )
b0100010 .
1/
#477
0/
#478
b1000100 &
b0000000000000110 '
b0001000100 (
b0000010000 )
b1000100 .
1/
#479
0/
#480
b0001001 &
b0000000000000101 '
b0000001001 (
b0000001111 )
b0001001 .
1/
#481
0/
#482
b0010011 &
b0000000000000100 '
b0000010011 (
b0000001110 )
b0010011 .
1/
#483
0/
#484
b0100110 &
b0000000000000011 '
b0000100110 (
b0000001101 )
b0100110 .
1/
#485
0/
#486
b1001100 &
b0000000000000010 '
b0001001100 (
b0000001100 )
b1001100 .
1/
#487
0/
#488
b0011001 &
b0000000000000001 '
b0000011001 (
b0000001011 )
b0011001 .
1/
#489
0/
#490
b0110010 &
b0000000000000000 '
b0000110010 (
b0000001010 )
b0110010 .
1/
#491
0/
#492
1#
b1100101 &
b0000000000101000 '
b0001100101 (
b0000001001 )
b1100101 .
1/
15
#493
0/
#494
0#
b1001010 &
b0000000000100111 '
b0001001010 (
b0000001000 )
b00000000000000000000000000000101 ,
b00000000000000000000000000000110 -
b1001010 .
1/
b00011111 3
05
#495
0/
#496
b0010101 &
b0000000000100110 '
b0000010101 (
b0000000111 )
b0010101 .
1/
#497
0/
#498
b0101010 &
b0000000000100101 '
b0000101010 (
b0000000110 )
b0101010 .
1/
#499
0/
#500
b1010100 &
b0000000000100100 '
b0001010100 (
b0000000101 )
b1010100 .
1/
#501
0/
#502
b0101000 &
b0000000000100011 '
b0000101000 (
b0000000100 )
b0101000 .
1/
#503
0/
#504
b1010000 &
b0000000000100010 '
b0001010000 (
b0000000011 )
b1010000 .
1/
#505
0/
#506
b0100000 &
b0000000000100001 '
b0000100000 (
b0000000010 )
b0100000 .
1/
#507
0/
#508
b1000000 &
b0000000000100000 '
b0001000000 (
b0000000001 )
b1000000 .
1/
#509
0/
#510
b0000001 &
b0000000000011111 '
b0000000001 (
b0000000000 )
b0000001 .
1/
#511
0/
#512
b0000011 &
b0000000000011110 '
b0000000011 (
b0000011 .
1/
#513
0/
#514
b0000111 &
b0000000000011101 '
b0000000111 (
b0000000010 )
b0000111 .
1/
#515
0/
#516
b0001111 &
b0000000000011100 '
b0000001111 (
b0000000001 )
b0001111 .
1/
#517
0/
#518
b0011111 &
b0000000000011011 '
b0000011111 (
b0000000000 )
b0011111 .
1/
#519
0/
#520
b0111110 &
b0000000000011010 '
b0000111110 (
b0000011110 )
b0111110 .
1/
#521
0/
#522
b1111101 &
b0000000000011001 '
b0001111101 (
b0000011101 )
b1111101 .
1/
#523
0/
#524
b1111011 &
b0000000000011000 '
b0001111011 (
b0000011100 )
b1111011 .
1/
#525
0/
#526
b1110111 &
b0000000000010111 '
b0001110111 (
b0000011011 )
b1110111 .
1/
#527
0/
#528
b1101111 &
b0000000000010110 '
b0001101111 (
b0000011010 )
b1101111 .
1/
#529
0/
#530
b1011110 &
b0000000000010101 '
b0001011110 (
b0000011001 )
b1011110 .
1/
#531
0/
#532
b0111100 &
b0000000000010100 '
b0000111100 (
b0000011000 )
b0111100 .
1/
#533
0/
#534
b1111001 &
b0000000000010011 '
b0001111001 (
b0000010111 )
b1111001 .
1/
#535
0/
#536
b1110011 &
b0000000000010010 '
b0001110011 (
b0000010110 )
b1110011 .
1/
#537
0/
#538
b1100111 &
b0000000000010001 '
b0001100111 (
b0000010101 )
b1100111 .
1/
#539
0/
#540
b1001110 &
b0000000000010000 '
b0001001110 (
b0000010100 )
b1001110 .
1/
#541
0/
#542
b0011101 &
b0000000000001111 '
b0000011101 (
b0000010011 )
b0011101 .
1/
#543
0/
#544
b0111010 &
b0000000000001110 '
b0000111010 (
b0000010010 )
b0111010 .
1/
#545
0/
#546
b1110101 &
b0000000000001101 '
b0001110101 (
b0000010001 )
b1110101 .
1/
#547
0/
#548
b1101011 &
b0000000000001100 '
b0001101011 (
b0000010000 )
b1101011 .
1/
#549
0/
#550
b1010110 &
b0000000000001011 '
b0001010110 (
b0000001111 )
b1010110 .
1/
#551
0/
#552
b0101100 &
b0000000000001010 '
b0000101100 (
b0000001110 )
b0101100 .
1/
#553
0/
#554
b1011000 &
b0000000000001001 '
b0001011000 (
b0000001101 )
b1011000 .
1/
#555
0/
